%YAML 1.1
%TAG !u! tag:unity3d.com,2011:
--- !u!21 &2100000
Material:
  serializedVersion: 6
  m_ObjectHideFlags: 0
  m_CorrespondingSourceObject: {fileID: 0}
  m_PrefabInternal: {fileID: 0}
  m_Name: WeatherMakerFullScreenBlurOverlayMaterial
  m_Shader: {fileID: 4800000, guid: 2e213ac3fddb3194f9651e0aea4e27c0, type: 3}
  m_ShaderKeywords: BLUR17 ENABLE_CLOUDS ORTHOGRAPHIC_MODE WATER_EDGEBLEND_ON WATER_REFLECTIVE
  m_LightmapFlags: 5
  m_EnableInstancingVariants: 0
  m_DoubleSidedGI: 0
  m_CustomRenderQueue: -1
  stringTagMap: {}
  disabledShaderPasses: []
  m_SavedProperties:
    serializedVersion: 3
    m_TexEnvs:
    - _DitherPaletteTex:
        m_Texture: {fileID: 2800000, guid: a0bfdb3846e4eb543b4a9df28f05c4a6, type: 3}
        m_Scale: {x: 1, y: 1}
        m_Offset: {x: 0, y: 0}
    - _DitherTex:
        m_Texture: {fileID: 2800000, guid: ac6cdbf7b6ecd9443b31ace4a0e2ce2e, type: 3}
        m_Scale: {x: 1, y: 1}
        m_Offset: {x: 0, y: 0}
    - _MainTex:
        m_Texture: {fileID: 0}
        m_Scale: {x: 1, y: 1}
        m_Offset: {x: 0, y: 0}
    m_Floats:
    - _BlurAlphaMin: 1.2
    - _BlurDepthMin: 0.1
    - _BlurDepthMultiplier: 0
    - _BlurDepthThreshold: 0.005
    - _BlurDitherLevel: 0
    - _DitherColorCount: 4
    - _DitherPaletteHeight: 128
    - _DitherSize: 8
    m_Colors: []
