%YAML 1.1
%TAG !u! tag:unity3d.com,2011:
--- !u!21 &2100000
Material:
  serializedVersion: 6
  m_ObjectHideFlags: 0
  m_CorrespondingSourceObject: {fileID: 0}
  m_PrefabInternal: {fileID: 0}
  m_Name: WeatherMakerFullScreenAlphaFogMaterial
  m_Shader: {fileID: 4800000, guid: 0a57f3dfeb5bb7b4086e14dcebc817a9, type: 3}
  m_ShaderKeywords: ENABLE_CLOUDS
  m_LightmapFlags: 5
  m_EnableInstancingVariants: 0
  m_DoubleSidedGI: 0
  m_CustomRenderQueue: -1
  stringTagMap: {}
  disabledShaderPasses: []
  m_SavedProperties:
    serializedVersion: 3
    m_TexEnvs:
    - _MainTex:
        m_Texture: {fileID: 0}
        m_Scale: {x: 1, y: 1}
        m_Offset: {x: 0, y: 0}
    m_Floats:
    - _AlphaDepthMultiplier: 0.75
    - _AlphaDepthThreshold: 0.005
    m_Colors: []
