%YAML 1.1
%TAG !u! tag:unity3d.com,2011:
--- !u!114 &11400000
MonoBehaviour:
  m_ObjectHideFlags: 0
  m_CorrespondingSourceObject: {fileID: 0}
  m_PrefabInternal: {fileID: 0}
  m_GameObject: {fileID: 0}
  m_Enabled: 1
  m_EditorHideFlags: 0
  m_Script: {fileID: 11500000, guid: 28f4fb0832d64c84b9aaf5fe0c2d2427, type: 3}
  m_Name: WeatherMakerProfile_ClearWindy
  m_EditorClassIdentifier: 
  Disabled: 0
  CloudProfile: {fileID: 11400000, guid: 33abfa540f3027c46b9ec57fadf0f658, type: 2}
  PrecipitationProfile: {fileID: 11400000, guid: ade9cd73fa679bb4598c943e6978a8ac,
    type: 2}
  FogProfile: {fileID: 11400000, guid: f4cd03fe6f4e8fd46b3976431b218da4, type: 2}
  WindProfile: {fileID: 11400000, guid: 154487c301600fc44998b5de8cd1072e, type: 2}
  LightningProfile: {fileID: 11400000, guid: 6da0500dd15ebf04d9ad8fea05471e3b, type: 2}
  SoundProfile: {fileID: 11400000, guid: 55c35897d3ab0664eab3fd8a4f9cee86, type: 2}
  TransitionDuration:
    Minimum: 0
    Maximum: 0
  HoldDuration:
    Minimum: 0
    Maximum: 0
