%YAML 1.1
%TAG !u! tag:unity3d.com,2011:
--- !u!114 &11400000
MonoBehaviour:
  m_ObjectHideFlags: 0
  m_CorrespondingSourceObject: {fileID: 0}
  m_PrefabInternal: {fileID: 0}
  m_GameObject: {fileID: 0}
  m_Enabled: 1
  m_EditorHideFlags: 0
  m_Script: {fileID: 11500000, guid: 9ba6d3094cf27f44781e52d9fd92adab, type: 3}
  m_Name: WeatherMakerCloudProfile_LightScattered
  m_EditorClassIdentifier: 
  CloudLayer1: {fileID: 11400000, guid: 27d04c056c24e7748b74ee12451db471, type: 2}
  CloudLayer2: {fileID: 11400000, guid: 2f55f6d4d5e7bef4daefe5602d970e03, type: 2}
  CloudLayer3: {fileID: 11400000, guid: 2f55f6d4d5e7bef4daefe5602d970e03, type: 2}
  CloudLayer4: {fileID: 11400000, guid: d46770527770a3f49a4f0f28dc713285, type: 2}
  CloudLayerVolumetric1: {fileID: 11400000, guid: 3d63898c62ab93d4da0ac9657d143dfc,
    type: 2}
  DirectionalLightIntensityMultiplier: 1
  DirectionalLightShadowStrengthMultiplier: 1
  CloudShadowStrength: 0.8
  CloudLightStrength: 1
  CloudVolumetricShadow: 1
  CloudDitherLevel: 0.0004
  WeatherMapRenderTextureOverride: {fileID: 0}
  WeatherMapRenderTextureMask: {fileID: 0}
  WeatherMapRenderTextureMaskVelocity: {x: 0, y: 0}
  WeatherMapRenderTextureMaskOffset: {x: 0, y: 0}
  WeatherMapRenderTextureMaskOffsetClamp: {x: -1.1, y: 1.1}
  WeatherMapScale: 0.00001
  WeatherMapCloudCoverageVelocity: {x: 723, y: 465, z: 0}
  WeatherMapCloudCoverageScale:
    Minimum: 36
    Maximum: 48
  WeatherMapCloudCoverageRotation:
    Minimum: -30
    Maximum: 30
  WeatherMapCloudCoverageAdder:
    Minimum: 0
    Maximum: 0
  WeatherMapCloudCoveragePower:
    Minimum: 1
    Maximum: 1
  WeatherMapCloudTypeVelocity: {x: 165, y: 120, z: 0}
  WeatherMapCloudTypeScale:
    Minimum: 4
    Maximum: 8
  WeatherMapCloudTypeRotation:
    Minimum: -30
    Maximum: 30
  WeatherMapCloudTypeAdder:
    Minimum: 0
    Maximum: 0
  WeatherMapCloudTypePower:
    Minimum: 1
    Maximum: 1
  CloudHeight: 1500
  CloudHeightTop: 4000
  CloudPlanetRadius: 1200000
  CameraPositionScale: 1
