%YAML 1.1
%TAG !u! tag:unity3d.com,2011:
--- !u!114 &11400000
MonoBehaviour:
  m_ObjectHideFlags: 0
  m_CorrespondingSourceObject: {fileID: 0}
  m_PrefabInternal: {fileID: 0}
  m_GameObject: {fileID: 0}
  m_Enabled: 1
  m_EditorHideFlags: 0
  m_Script: {fileID: 11500000, guid: 9ba6d3094cf27f44781e52d9fd92adab, type: 3}
  m_Name: WeatherMakerCloudProfile_PartlyCloudy
  m_EditorClassIdentifier: 
  CloudLayer1: {fileID: 11400000, guid: c672b794eaaae0d4d850cbe3904a0ecd, type: 2}
  CloudLayer2: {fileID: 11400000, guid: f2f671ad927130b4f8a2db64ac7cad34, type: 2}
  CloudLayer3: {fileID: 11400000, guid: 699ca5ef14b6a8e4bae25a72c2c00a32, type: 2}
  CloudLayer4: {fileID: 0}
  CloudLayerVolumetric1: {fileID: 0}
  DirectionalLightIntensityMultiplier: 1
  DirectionalLightShadowStrengthMultiplier: 1
  CloudShadowStrength: 0.8
  CloudLightStrength: 1
  CloudVolumetricShadow: 1
  CloudDitherLevel: 0.0004
  WeatherMapRenderTextureOverride: {fileID: 0}
  WeatherMapRenderTextureMask: {fileID: 0}
  WeatherMapRenderTextureMaskVelocity: {x: 0, y: 0}
  WeatherMapRenderTextureMaskOffset: {x: 0, y: 0}
  WeatherMapRenderTextureMaskOffsetClamp: {x: -1.1, y: 1.1}
  WeatherMapScale: 0.00001
  WeatherMapCloudCoverageVelocity: {x: 11, y: 15, z: 0}
  WeatherMapCloudCoverageScale:
    Minimum: 4
    Maximum: 16
  WeatherMapCloudCoverageRotation:
    Minimum: -30
    Maximum: 30
  WeatherMapCloudCoverageAdder:
    Minimum: 0
    Maximum: 0
  WeatherMapCloudCoveragePower:
    Minimum: 1
    Maximum: 1
  WeatherMapCloudTypeVelocity: {x: 17, y: 10, z: 0}
  WeatherMapCloudTypeScale:
    Minimum: 2
    Maximum: 8
  WeatherMapCloudTypeRotation:
    Minimum: -30
    Maximum: 30
  WeatherMapCloudTypeAdder:
    Minimum: 0
    Maximum: 0
  WeatherMapCloudTypePower:
    Minimum: 1
    Maximum: 1
  CloudHeight: 1500
  CloudHeightTop: 4000
  CloudPlanetRadius: 1200000
  CameraPositionScale: 1
