%YAML 1.1
%TAG !u! tag:unity3d.com,2011:
--- !u!114 &11400000
MonoBehaviour:
  m_ObjectHideFlags: 0
  m_CorrespondingSourceObject: {fileID: 0}
  m_PrefabInternal: {fileID: 0}
  m_GameObject: {fileID: 0}
  m_Enabled: 1
  m_EditorHideFlags: 0
  m_Script: {fileID: 11500000, guid: e168f12d61cc2a74a9374748d4913af4, type: 3}
  m_Name: WeatherMakerSoundGroupNone
  m_EditorClassIdentifier: 
  Disabled: 0
  Sounds: []
