%YAML 1.1
%TAG !u! tag:unity3d.com,2011:
--- !u!114 &11400000
MonoBehaviour:
  m_ObjectHideFlags: 0
  m_CorrespondingSourceObject: {fileID: 0}
  m_PrefabInternal: {fileID: 0}
  m_GameObject: {fileID: 0}
  m_Enabled: 1
  m_EditorHideFlags: 0
  m_Script: {fileID: 11500000, guid: 116e7b86293bc1248a4ec395a13e7896, type: 3}
  m_Name: WeatherMakerNullZoneProfile_OpenMain
  m_EditorClassIdentifier: 
  Description: Meant for open building main area, can extend beyond roof. As camera
    gets closer to bounds, items will fade out (fade is negative). Should be placed
    slightly inside a null ground zone but not touching the floor.
  DefaultState:
    Enabled: 1
    RenderMask: 0
    Fade: -0.1
  EnteredState:
    Enabled: 0
    RenderMask: 0
    Fade: 2
