%YAML 1.1
%TAG !u! tag:unity3d.com,2011:
--- !u!114 &11400000
MonoBehaviour:
  m_ObjectHideFlags: 0
  m_CorrespondingSourceObject: {fileID: 0}
  m_PrefabInternal: {fileID: 0}
  m_GameObject: {fileID: 0}
  m_Enabled: 1
  m_EditorHideFlags: 0
  m_Script: {fileID: 11500000, guid: 40055b00d854a2246a945353a71413d4, type: 3}
  m_Name: WeatherMakerFullScreenFogProfile_Sandstorm
  m_EditorClassIdentifier: 
  FogMode: 3
  FogDensity: 0.1
  FogFactorMultiplier: 1
  FogStartDepth: 0
  FogEndDepth: 0
  FogColor: {r: 0.5441177, g: 0.53539854, b: 0.22804932, a: 1}
  FogEmissionColor: {r: 0, g: 0, b: 0, a: 1}
  FogGradientColor:
    serializedVersion: 2
    key0: {r: 1, g: 1, b: 1, a: 1}
    key1: {r: 1, g: 1, b: 1, a: 1}
    key2: {r: 0, g: 0, b: 0, a: 0}
    key3: {r: 0, g: 0, b: 0, a: 0}
    key4: {r: 0, g: 0, b: 0, a: 0}
    key5: {r: 0, g: 0, b: 0, a: 0}
    key6: {r: 0, g: 0, b: 0, a: 0}
    key7: {r: 0, g: 0, b: 0, a: 0}
    ctime0: 0
    ctime1: 65535
    ctime2: 0
    ctime3: 0
    ctime4: 0
    ctime5: 0
    ctime6: 0
    ctime7: 0
    atime0: 0
    atime1: 65535
    atime2: 0
    atime3: 0
    atime4: 0
    atime5: 0
    atime6: 0
    atime7: 0
    m_Mode: 0
    m_NumColorKeys: 2
    m_NumAlphaKeys: 2
  FogLightAbsorption: 1
  MaxFogFactor: 1
  FogNoiseScale: 0.01
  FogNoiseAdder: 0.54
  FogNoiseMultiplier: 0.92
  FogNoiseVelocity: {x: 55, y: 3, z: 55}
  FogNoiseVelocityRotation: {x: 1, y: 2, z: 3, w: 64}
  WindEffectsFogNoiseVelocity: 1
  FogNoiseSampleCount: 40
  DitherLevel: 0.003
  FogShadowSampleCount: 0
  FogShadowMaxRayLength: 1000
  FogShadowMultiplier: 8
  FogShadowPower: 64
  FogShadowBrightness: 0
  FogShadowDecay: 0.95
  FogShadowDither: 0.4
  FogShadowDitherMagic: {x: 0.73, y: 1.665, z: 1024, w: 1024}
  FogEdgeSmoothFactor: 0.25
  FogHeightFalloffPower: 0.75
  FogEdgeFalloffPower: 0.75
  FogHeight: 0
  SunShaftSampleCount: 16
  SunShaftDownSampleScale: 2
  SunShaftSpread: 0.65
  SunShaftBrightness: 0
  SunShaftStepMultiplier: 21
  SunShaftDecay: 0.97
  SunShaftTintColor: {r: 1, g: 1, b: 1, a: 1}
  SunShaftDither: 0.35
  SunShaftDitherMagic: {x: 2.3, y: 5.27, z: 1024, w: 1024}
