%YAML 1.1
%TAG !u! tag:unity3d.com,2011:
--- !u!114 &11400000
MonoBehaviour:
  m_ObjectHideFlags: 0
  m_CorrespondingSourceObject: {fileID: 0}
  m_PrefabInternal: {fileID: 0}
  m_GameObject: {fileID: 0}
  m_Enabled: 1
  m_EditorHideFlags: 0
  m_Script: {fileID: 11500000, guid: c50d1a0231b929d499944fc9f1d410b3, type: 3}
  m_Name: WeatherMakerCloudLayerProfileVolumetric_Light
  m_EditorClassIdentifier: 
  CloudNoiseShape: {fileID: 11700000, guid: be1ad71395d88014287b3a86a01067da, type: 2}
  CloudNoiseDetail: {fileID: 11700000, guid: 95078e308f795af4ab9c5814d9ee341d, type: 2}
  CloudNoiseCurl: {fileID: 2800000, guid: bbe7762b406bdb2418b546943eed56c9, type: 3}
  CloudNoiseScale: {x: 1, y: 1.6123124, z: 0.5, w: 1}
  CloudNoiseScalar:
    Minimum: 0.95
    Maximum: 1.06
  CloudHeightNoisePowerVolumetric:
    Minimum: 16
    Maximum: 18
  CloudNoiseSampleCount:
    Minimum: 64
    Maximum: 128
  CloudNoiseLod:
    Minimum: 0
    Maximum: 0
  CloudDirLightSampleCount: 5
  CloudMaxRayLengthMultiplier: 10
  CloudRaymarchSkipThreshold: 0
  CloudRaymarchMaybeInCloudStepMultiplier: 1
  CloudRaymarchInCloudStepMultiplier: 1
  CloudRaymarchSkipMultiplier: 1.1
  CloudRaymarchSkipMultiplierMaxCount: 16
  CloudOpticalDistanceMultiplier: 10
  CloudHorizonFadeMultiplier: 1
  CloudRayDither: 0.05
  CloudRayOffset: 0.1
  CloudMinRayY: -0.01
  CloudShapeAnimationVelocity: {x: 0, y: -15, z: 0}
  CloudDetailAnimationVelocity: {x: 0, y: -22, z: 0}
  CloudColor: {r: 1, g: 1, b: 1, a: 1}
  CloudEmissionColor: {r: 0, g: 0, b: 0, a: 0}
  CloudDirLightGradientColor:
    serializedVersion: 2
    key0: {r: 1, g: 1, b: 1, a: 1}
    key1: {r: 1, g: 1, b: 1, a: 1}
    key2: {r: 0.8627451, g: 0.39215687, b: 0.19607843, a: 0}
    key3: {r: 0.8897059, g: 0.41245896, b: 0.045793675, a: 0}
    key4: {r: 1, g: 1, b: 1, a: 0}
    key5: {r: 1, g: 1, b: 1, a: 0}
    key6: {r: 0, g: 0, b: 0, a: 0}
    key7: {r: 0, g: 0, b: 0, a: 0}
    ctime0: 0
    ctime1: 19661
    ctime2: 26214
    ctime3: 36044
    ctime4: 43889
    ctime5: 65535
    ctime6: 0
    ctime7: 0
    atime0: 386
    atime1: 65535
    atime2: 0
    atime3: 0
    atime4: 0
    atime5: 0
    atime6: 0
    atime7: 0
    m_Mode: 0
    m_NumColorKeys: 6
    m_NumAlphaKeys: 2
  CloudDirLightMultiplier: 4
  CloudPointSpotLightMultiplier: 1
  CloudLightStepMultiplier: 1
  CloudLightAbsorption: 0.5
  CloudHenyeyGreensteinPhase: {x: 0.7, y: -0.4, z: 0.035, w: 1}
  CloudDirLightIndirectMultiplier: 0.5
  CloudAmbientGroundIntensity: 3
  CloudAmbientSkyIntensity: 3
  CloudSkyIntensity: 1
  CloudAmbientGroundHeightMultiplier: 1
  CloudAmbientSkyHeightMultiplier: 1
  CloudGradientStratus:
    serializedVersion: 2
    key0: {r: 0, g: 0, b: 0, a: 1}
    key1: {r: 1, g: 1, b: 1, a: 1}
    key2: {r: 1, g: 1, b: 1, a: 0}
    key3: {r: 0, g: 0, b: 0, a: 0}
    key4: {r: 0, g: 0, b: 0, a: 0}
    key5: {r: 0, g: 0, b: 0, a: 0}
    key6: {r: 0, g: 0, b: 0, a: 0}
    key7: {r: 0, g: 0, b: 0, a: 0}
    ctime0: 0
    ctime1: 6455
    ctime2: 8244
    ctime3: 14713
    ctime4: 65535
    ctime5: 0
    ctime6: 0
    ctime7: 0
    atime0: 0
    atime1: 65535
    atime2: 0
    atime3: 0
    atime4: 0
    atime5: 0
    atime6: 0
    atime7: 0
    m_Mode: 0
    m_NumColorKeys: 5
    m_NumAlphaKeys: 2
  CloudGradientStratoCumulus:
    serializedVersion: 2
    key0: {r: 0, g: 0, b: 0, a: 1}
    key1: {r: 1, g: 1, b: 1, a: 1}
    key2: {r: 1, g: 1, b: 1, a: 0}
    key3: {r: 0, g: 0, b: 0, a: 0}
    key4: {r: 0, g: 0, b: 0, a: 0}
    key5: {r: 0, g: 0, b: 0, a: 0}
    key6: {r: 0, g: 0, b: 0, a: 0}
    key7: {r: 0, g: 0, b: 0, a: 0}
    ctime0: 0
    ctime1: 6324
    ctime2: 20604
    ctime3: 33554
    ctime4: 65535
    ctime5: 0
    ctime6: 0
    ctime7: 0
    atime0: 0
    atime1: 65535
    atime2: 0
    atime3: 0
    atime4: 0
    atime5: 0
    atime6: 0
    atime7: 0
    m_Mode: 0
    m_NumColorKeys: 5
    m_NumAlphaKeys: 2
  CloudGradientCumulus:
    serializedVersion: 2
    key0: {r: 0, g: 0, b: 0, a: 1}
    key1: {r: 1, g: 1, b: 1, a: 1}
    key2: {r: 1, g: 1, b: 1, a: 0}
    key3: {r: 0, g: 0, b: 0, a: 0}
    key4: {r: 0, g: 0, b: 0, a: 0}
    key5: {r: 0, g: 0, b: 0, a: 0}
    key6: {r: 0, g: 0, b: 0, a: 0}
    key7: {r: 0, g: 0, b: 0, a: 0}
    ctime0: 0
    ctime1: 5570
    ctime2: 49413
    ctime3: 65535
    ctime4: 0
    ctime5: 0
    ctime6: 0
    ctime7: 0
    atime0: 0
    atime1: 65535
    atime2: 0
    atime3: 0
    atime4: 0
    atime5: 0
    atime6: 0
    atime7: 0
    m_Mode: 0
    m_NumColorKeys: 4
    m_NumAlphaKeys: 2
  CloudShapeNoiseMin:
    Minimum: 0.14
    Maximum: 0.16
  CloudShapeNoiseMax:
    Minimum: 0.35
    Maximum: 0.37
  CloudPowderMultiplier:
    Minimum: 2
    Maximum: 2
  CloudBottomFade:
    Minimum: 0.28
    Maximum: 0.32
  CloudCover:
    Minimum: 0.32
    Maximum: 0.35
  CloudCoverSecondary:
    Minimum: 0
    Maximum: 0
  CloudType:
    Minimum: 0.3
    Maximum: 0.4
  CloudTypeSecondary:
    Minimum: 0
    Maximum: 0
  CloudDensity:
    Minimum: 0.87
    Maximum: 0.9
  FlatLayerMask: 8
  CloudDirLightRaySampleCount: 16
  CloudDirLightRaySpread: 0.5
  CloudDirLightRayBrightness: 0.5
  CloudDirLightRayStepMultiplier: 16
  CloudDirLightRayDecay: 0.97
  CloudDirLightRayTintColor: {r: 1, g: 1, b: 1, a: 1}
  CloudDirLightRayDither: 0.07
  CloudDirLightRayDitherMagic: {x: 2.34325, y: 5.235345, z: 1024, w: 1024}
