%YAML 1.1
%TAG !u! tag:unity3d.com,2011:
--- !u!114 &11400000
MonoBehaviour:
  m_ObjectHideFlags: 0
  m_CorrespondingSourceObject: {fileID: 0}
  m_PrefabInternal: {fileID: 0}
  m_GameObject: {fileID: 0}
  m_Enabled: 1
  m_EditorHideFlags: 0
  m_Script: {fileID: 11500000, guid: b8b859745e454d74599904283ee6dcdb, type: 3}
  m_Name: WeatherMakerCloudLayerProfile_GloomyLayer2
  m_EditorClassIdentifier: 
  CloudNoise: {fileID: 2800000, guid: 838b1e53e7a9d6a40b875d4eb20c8461, type: 3}
  CloudNoiseScale: {x: 0.00001, y: 0.0001, z: 0.0002, w: 0.0003}
  CloudNoiseMultiplier: {x: 0.4, y: 0.35, z: 0.15, w: 0.1}
  CloudNoiseVelocity: {x: 0.05, y: 0, z: 0.08}
  CloudNoiseRotation:
    Minimum: 0
    Maximum: 0
  CloudColor: {r: 0.85294116, g: 0.85294116, b: 0.85294116, a: 1}
  CloudEmissionColor: {r: 0, g: 0, b: 0, a: 0}
  CloudGradientColor:
    serializedVersion: 2
    key0: {r: 1, g: 1, b: 1, a: 1}
    key1: {r: 1, g: 1, b: 1, a: 1}
    key2: {r: 0, g: 0, b: 0, a: 0}
    key3: {r: 0, g: 0, b: 0, a: 0}
    key4: {r: 0, g: 0, b: 0, a: 0}
    key5: {r: 0, g: 0, b: 0, a: 0}
    key6: {r: 0, g: 0, b: 0, a: 0}
    key7: {r: 0, g: 0, b: 0, a: 0}
    ctime0: 0
    ctime1: 65535
    ctime2: 0
    ctime3: 0
    ctime4: 0
    ctime5: 0
    ctime6: 0
    ctime7: 0
    atime0: 0
    atime1: 65535
    atime2: 0
    atime3: 0
    atime4: 0
    atime5: 0
    atime6: 0
    atime7: 0
    m_Mode: 0
    m_NumColorKeys: 2
    m_NumAlphaKeys: 2
  CloudAmbientMultiplier: 1
  CloudScatterMultiplier: 1
  CloudHeight: 6000
  CloudCover: 0.86
  CloudDensity: 0.604
  CloudLightAbsorption: 0.099
  CloudHorizonFade: 0
  CloudSharpness: 0.043
  CloudRayOffset: 0.2
