%YAML 1.1
%TAG !u! tag:unity3d.com,2011:
--- !u!114 &11400000
MonoBehaviour:
  m_ObjectHideFlags: 0
  m_CorrespondingSourceObject: {fileID: 0}
  m_PrefabInternal: {fileID: 0}
  m_GameObject: {fileID: 0}
  m_Enabled: 1
  m_EditorHideFlags: 0
  m_Script: {fileID: 11500000, guid: b8b859745e454d74599904283ee6dcdb, type: 3}
  m_Name: WeatherMakerCloudLayerProfile_CirrusMedium
  m_EditorClassIdentifier: 
  CloudNoise: {fileID: 2800000, guid: c1ddb517f287d8a4ba3512e17a9313b4, type: 3}
  CloudNoiseScale: {x: 0.0004, y: 0, z: 0, w: 0}
  CloudNoiseMultiplier: {x: 1, y: 0, z: 0, w: 0}
  CloudNoiseVelocity: {x: 0.02, y: 0, z: 0.01}
  CloudNoiseRotation:
    Minimum: -30
    Maximum: 30
  CloudColor: {r: 1, g: 1, b: 1, a: 1}
  CloudEmissionColor: {r: 0, g: 0, b: 0, a: 0}
  CloudGradientColor:
    serializedVersion: 2
    key0: {r: 1, g: 1, b: 1, a: 1}
    key1: {r: 1, g: 1, b: 1, a: 1}
    key2: {r: 1, g: 0.4758621, b: 0, a: 0}
    key3: {r: 1, g: 0.38235295, b: 0.38235295, a: 0}
    key4: {r: 1, g: 1, b: 1, a: 0}
    key5: {r: 1, g: 1, b: 1, a: 0}
    key6: {r: 0, g: 0, b: 0, a: 0}
    key7: {r: 0, g: 0, b: 0, a: 0}
    ctime0: 0
    ctime1: 17033
    ctime2: 24756
    ctime3: 36304
    ctime4: 45037
    ctime5: 65535
    ctime6: 0
    ctime7: 0
    atime0: 0
    atime1: 65535
    atime2: 0
    atime3: 0
    atime4: 0
    atime5: 0
    atime6: 0
    atime7: 0
    m_Mode: 0
    m_NumColorKeys: 6
    m_NumAlphaKeys: 2
  CloudAmbientMultiplier: 1
  CloudScatterMultiplier: 0.15
  CloudHeight: 10000
  CloudCover: 0.15
  CloudDensity: 0.1
  CloudLightAbsorption: 0.1
  CloudHorizonFade: 1
  CloudSharpness: 0
  CloudRayOffset: 0.1
